"data","temperature","humidity"

"2016-11-29T19:17:15.878Z","22.00","26.00"
"2016-11-29T19:18:17.672Z","22.00","26.00"
"2016-11-29T19:19:17.689Z","22.00","26.00"
"2016-11-29T19:20:17.845Z","21.00","25.00"
"2016-11-29T19:21:17.732Z","15.00","26.00"
"2016-11-29T19:22:17.717Z","12.00","28.00"
"2016-11-29T19:23:17.755Z","10.00","29.00"
"2016-11-29T19:24:17.756Z","8.00","31.00"
"2016-11-29T19:25:17.780Z","7.00","33.00"
"2016-11-29T19:26:17.876Z","6.00","36.00"
"2016-11-29T19:27:17.968Z","6.00","40.00"
"2016-11-29T19:28:17.825Z","5.00","42.00"
"2016-11-29T19:29:17.866Z","5.00","45.00"
"2016-11-29T19:30:17.804Z","5.00","49.00"
"2016-11-29T19:31:17.862Z","4.00","51.00"
"2016-11-29T19:32:17.848Z","4.00","53.00"
"2016-11-29T19:33:17.859Z","4.00","56.00"
"2016-11-29T19:34:17.936Z","4.00","58.00"
"2016-11-29T19:35:17.868Z","4.00","60.00"
"2016-11-29T19:36:17.874Z","3.00","62.00"
"2016-11-29T19:37:17.874Z","3.00","64.00"
"2016-11-29T19:38:17.884Z","3.00","66.00"
"2016-11-29T19:39:17.953Z","3.00","68.00"
"2016-11-29T19:40:17.974Z","3.00","70.00"
"2016-11-29T19:41:17.873Z","3.00","71.00"
"2016-11-29T19:42:17.950Z","3.00","72.00"
"2016-11-29T19:43:17.936Z","3.00","73.00"
"2016-11-29T19:44:18.055Z","3.00","74.00"
"2016-11-29T19:45:17.927Z","3.00","75.00"
"2016-11-29T19:46:17.954Z","3.00","75.00"
"2016-11-29T19:47:17.940Z","3.00","76.00"
"2016-11-29T19:48:17.972Z","3.00","77.00"
"2016-11-29T19:49:18.061Z","3.00","77.00"
"2016-11-29T19:50:18.047Z","2.00","78.00"
"2016-11-29T19:51:17.971Z","2.00","78.00"
"2016-11-29T19:52:17.977Z","2.00","79.00"
"2016-11-29T19:53:17.970Z","2.00","80.00"
"2016-11-29T19:54:17.955Z","2.00","81.00"
"2016-11-29T19:55:18.065Z","2.00","82.00"
"2016-11-29T19:56:17.961Z","2.00","83.00"
"2016-11-29T19:57:17.987Z","2.00","83.00"
"2016-11-29T19:58:17.973Z","2.00","84.00"
"2016-11-29T19:59:17.981Z","2.00","85.00"
"2016-11-29T20:00:17.979Z","2.00","85.00"
"2016-11-29T20:01:18.039Z","2.00","87.00"
"2016-11-29T20:02:17.978Z","2.00","87.00"
"2016-11-29T20:03:17.992Z","2.00","88.00"
"2016-11-29T20:04:17.998Z","2.00","88.00"
"2016-11-29T20:05:18.005Z","2.00","88.00"
"2016-11-29T20:06:18.003Z","2.00","89.00"
"2016-11-29T20:08:14.473Z","2.00","89.00"
"2016-11-29T20:09:18.080Z","2.00","89.00"
"2016-11-29T20:10:17.447Z","2.00","90.00"
"2016-11-29T20:11:18.050Z","7.00","90.00"
"2016-11-29T20:12:18.015Z","10.00","92.00"
"2016-11-29T20:13:18.023Z","12.00","93.00"
"2016-11-29T20:14:18.054Z","14.00","93.00"
"2016-11-29T20:15:18.048Z","15.00","92.00"
"2016-11-29T20:16:18.049Z","16.00","91.00"
"2016-11-29T20:17:18.093Z","16.00","88.00"
"2016-11-29T20:18:18.044Z","17.00","85.00"
"2016-11-29T20:19:18.054Z","17.00","80.00"
"2016-11-29T20:20:18.044Z","18.00","76.00"
"2016-11-29T20:21:18.052Z","18.00","73.00"
"2016-11-29T20:22:18.059Z","18.00","70.00"
"2016-11-29T20:23:18.144Z","19.00","67.00"
"2016-11-29T20:24:18.064Z","19.00","64.00"
"2016-11-29T20:25:18.060Z","19.00","62.00"
"2016-11-29T20:26:18.275Z","19.00","60.00"
"2016-11-29T20:27:18.097Z","19.00","59.00"
"2016-11-29T20:28:21.090Z","20.00","57.00"
"2016-11-29T20:29:18.097Z","20.00","56.00"
"2016-11-29T20:30:18.246Z","20.00","56.00"
"2016-11-29T20:31:18.089Z","20.00","55.00"
"2016-11-29T20:32:18.126Z","20.00","54.00"
"2016-11-29T20:33:18.107Z","20.00","54.00"
"2016-11-29T20:34:18.139Z","20.00","53.00"
"2016-11-29T20:35:18.112Z","20.00","53.00"
"2016-11-29T20:36:18.150Z","20.00","52.00"
"2016-11-29T20:38:15.947Z","20.00","52.00"
"2016-11-29T20:39:18.111Z","20.00","51.00"
"2016-11-29T20:40:18.108Z","21.00","51.00"
"2016-11-29T20:41:18.287Z","21.00","51.00"
"2016-11-29T20:42:18.206Z","21.00","50.00"
"2016-11-29T20:43:18.133Z","21.00","50.00"
"2016-11-29T20:44:18.143Z","21.00","50.00"
"2016-11-29T20:45:18.124Z","21.00","50.00"
"2016-11-29T20:46:18.257Z","21.00","49.00"
"2016-11-29T20:47:18.125Z","21.00","49.00"
"2016-11-29T20:48:18.134Z","21.00","49.00"
"2016-11-29T20:49:18.138Z","21.00","49.00"
"2016-11-29T20:50:18.128Z","21.00","49.00"
"2016-11-29T20:51:18.130Z","21.00","49.00"
"2016-11-29T20:52:18.124Z","21.00","48.00"
"2016-11-29T20:53:18.225Z","21.00","48.00"
"2016-11-29T20:54:18.133Z","21.00","48.00"
"2016-11-29T20:55:18.139Z","21.00","48.00"
"2016-11-29T20:56:18.141Z","21.00","48.00"
"2016-11-29T20:57:18.231Z","21.00","47.00"
"2016-11-29T20:58:18.270Z","21.00","47.00"
"2016-11-29T20:59:18.275Z","21.00","47.00"
"2016-11-29T21:00:18.152Z","21.00","47.00"
"2016-11-29T21:01:18.222Z","21.00","47.00"
"2016-11-29T21:02:18.188Z","21.00","46.00"
"2016-11-29T21:03:18.171Z","21.00","46.00"
"2016-11-29T21:04:18.156Z","21.00","45.00"
"2016-11-29T21:05:18.165Z","21.00","45.00"
"2016-11-29T21:06:18.176Z","21.00","45.00"
"2016-11-29T21:07:18.173Z","21.00","45.00"
"2016-11-29T21:08:18.171Z","21.00","45.00"
"2016-11-29T21:09:18.175Z","21.00","45.00"
"2016-11-29T21:10:18.184Z","21.00","45.00"
"2016-11-29T21:11:18.488Z","21.00","44.00"
"2016-11-29T21:12:18.218Z","21.00","44.00"
"2016-11-29T21:13:18.246Z","21.00","45.00"
"2016-11-29T21:14:18.236Z","21.00","45.00"
"2016-11-29T21:15:18.226Z","21.00","45.00"
"2016-11-29T21:16:18.464Z","21.00","45.00"
"2016-11-29T21:17:18.409Z","21.00","45.00"
"2016-11-29T21:18:18.317Z","21.00","44.00"
"2016-11-29T21:19:18.630Z","21.00","44.00"
"2016-11-29T21:20:18.447Z","21.00","44.00"
"2016-11-29T21:21:18.358Z","21.00","43.00"
"2016-11-29T21:22:18.345Z","21.00","43.00"
"2016-11-29T21:23:18.280Z","21.00","43.00"
"2016-11-29T21:24:18.478Z","21.00","43.00"
"2016-11-29T21:25:18.389Z","21.00","43.00"
"2016-11-29T21:26:18.384Z","21.00","43.00"
"2016-11-29T21:27:18.260Z","21.00","43.00"
"2016-11-29T21:28:18.239Z","21.00","43.00"
"2016-11-29T21:29:18.262Z","21.00","42.00"
"2016-11-29T21:30:18.262Z","21.00","42.00"
"2016-11-29T21:31:18.248Z","22.00","42.00"
"2016-11-29T21:32:18.453Z","22.00","42.00"
"2016-11-29T21:33:18.267Z","22.00","42.00"
"2016-11-29T21:34:18.412Z","22.00","42.00"
"2016-11-29T21:35:18.380Z","22.00","42.00"
"2016-11-29T21:36:19.871Z","22.00","42.00"
"2016-11-29T21:37:18.330Z","22.00","42.00"
"2016-11-29T21:38:18.255Z","22.00","42.00"
"2016-11-29T21:39:18.264Z","22.00","42.00"
"2016-11-29T21:40:18.302Z","22.00","42.00"
"2016-11-29T21:41:18.254Z","22.00","42.00"
"2016-11-29T21:42:18.271Z","22.00","42.00"
"2016-11-29T21:43:18.334Z","22.00","42.00"
"2016-11-29T21:44:18.257Z","22.00","42.00"
"2016-11-29T21:45:18.265Z","22.00","42.00"
"2016-11-29T21:46:18.267Z","22.00","41.00"
"2016-11-29T21:47:18.269Z","22.00","41.00"
"2016-11-29T21:48:18.298Z","21.00","41.00"
"2016-11-29T21:49:18.271Z","22.00","41.00"
"2016-11-29T21:50:18.277Z","22.00","41.00"
"2016-11-29T21:51:18.307Z","22.00","41.00"
"2016-11-29T21:52:18.286Z","22.00","41.00"
"2016-11-29T21:53:18.421Z","22.00","41.00"
"2016-11-29T21:54:18.287Z","22.00","41.00"
"2016-11-29T21:55:18.328Z","22.00","41.00"
"2016-11-29T21:56:18.334Z","22.00","41.00"
"2016-11-29T21:57:18.278Z","22.00","41.00"
"2016-11-29T21:58:18.303Z","22.00","41.00"
"2016-11-29T21:59:18.322Z","22.00","41.00"
"2016-11-29T22:00:18.298Z","22.00","41.00"
"2016-11-29T22:01:18.309Z","22.00","41.00"
"2016-11-29T22:02:18.309Z","22.00","41.00"
"2016-11-29T22:03:18.323Z","22.00","41.00"
"2016-11-29T22:04:18.431Z","22.00","41.00"
"2016-11-29T22:05:18.319Z","22.00","41.00"
"2016-11-29T22:06:18.344Z","22.00","41.00"
"2016-11-29T22:07:18.322Z","22.00","41.00"
"2016-11-29T22:08:18.308Z","22.00","41.00"
"2016-11-29T22:09:18.316Z","22.00","41.00"
"2016-11-29T22:10:18.322Z","22.00","41.00"
"2016-11-29T22:11:18.328Z","22.00","40.00"
"2016-11-29T22:12:18.316Z","22.00","40.00"
"2016-11-29T22:13:18.342Z","22.00","40.00"
"2016-11-29T22:14:18.321Z","22.00","40.00"
"2016-11-29T22:15:18.322Z","22.00","40.00"
"2016-11-29T22:16:18.313Z","22.00","40.00"
"2016-11-29T22:17:18.437Z","22.00","40.00"
"2016-11-29T22:18:18.525Z","22.00","40.00"
"2016-11-29T22:19:18.320Z","22.00","40.00"
"2016-11-29T22:20:18.441Z","22.00","40.00"
"2016-11-29T22:21:18.347Z","22.00","40.00"
"2016-11-29T22:22:18.343Z","22.00","40.00"
"2016-11-29T22:23:18.333Z","22.00","40.00"
"2016-11-29T22:24:18.385Z","22.00","40.00"
"2016-11-29T22:25:18.331Z","22.00","40.00"
"2016-11-29T22:26:18.428Z","22.00","40.00"
"2016-11-29T22:27:18.330Z","22.00","40.00"
"2016-11-29T22:28:18.331Z","22.00","40.00"
"2016-11-29T22:29:18.338Z","22.00","40.00"
"2016-11-29T22:30:18.360Z","22.00","40.00"
"2016-11-29T22:31:18.330Z","22.00","40.00"
"2016-11-29T22:32:18.531Z","22.00","40.00"
"2016-11-29T22:33:18.392Z","22.00","40.00"
"2016-11-29T22:34:18.622Z","22.00","40.00"
"2016-11-29T22:35:18.641Z","22.00","40.00"
"2016-11-29T22:36:18.382Z","22.00","40.00"
"2016-11-29T22:37:18.365Z","22.00","40.00"
"2016-11-29T22:38:18.429Z","22.00","40.00"
"2016-11-29T22:39:18.385Z","22.00","40.00"
"2016-11-29T22:40:18.348Z","22.00","40.00"
"2016-11-29T22:41:18.358Z","22.00","40.00"
"2016-11-29T22:42:18.356Z","22.00","40.00"
"2016-11-29T22:43:18.349Z","22.00","40.00"
"2016-11-29T22:44:18.526Z","22.00","40.00"
"2016-11-29T22:45:18.420Z","22.00","40.00"
"2016-11-29T22:46:18.529Z","22.00","40.00"
"2016-11-29T22:47:18.369Z","22.00","40.00"
"2016-11-29T22:48:18.425Z","22.00","40.00"
"2016-11-29T22:49:18.368Z","22.00","40.00"
"2016-11-29T22:50:18.374Z","22.00","40.00"
"2016-11-29T22:51:18.374Z","22.00","39.00"
"2016-11-29T22:52:18.364Z","22.00","39.00"
"2016-11-29T22:53:18.374Z","22.00","39.00"
"2016-11-29T22:54:18.389Z","22.00","39.00"
"2016-11-29T22:55:18.424Z","22.00","39.00"
"2016-11-29T22:56:18.383Z","22.00","39.00"
"2016-11-29T22:57:18.383Z","22.00","39.00"
"2016-11-29T22:58:18.428Z","22.00","39.00"
"2016-11-29T22:59:18.386Z","22.00","39.00"
"2016-11-29T23:00:18.425Z","22.00","39.00"
"2016-11-29T23:01:18.431Z","22.00","39.00"
"2016-11-29T23:02:18.376Z","22.00","39.00"
"2016-11-29T23:03:18.399Z","22.00","39.00"
"2016-11-29T23:04:18.403Z","22.00","39.00"
"2016-11-29T23:05:18.406Z","22.00","39.00"
"2016-11-29T23:06:18.420Z","22.00","39.00"
"2016-11-29T23:07:18.406Z","22.00","39.00"
"2016-11-29T23:08:18.428Z","22.00","39.00"
"2016-11-29T23:09:18.425Z","22.00","39.00"
"2016-11-29T23:10:18.415Z","22.00","39.00"
"2016-11-29T23:11:18.535Z","22.00","39.00"
"2016-11-29T23:12:18.420Z","22.00","39.00"
"2016-11-29T23:13:18.435Z","22.00","39.00"
"2016-11-29T23:14:18.441Z","22.00","39.00"
"2016-11-29T23:15:18.414Z","22.00","39.00"
"2016-11-29T23:16:18.413Z","22.00","39.00"
"2016-11-29T23:17:18.430Z","22.00","39.00"
"2016-11-29T23:18:18.420Z","22.00","39.00"
"2016-11-29T23:19:18.456Z","22.00","39.00"
"2016-11-29T23:20:18.426Z","22.00","39.00"
"2016-11-29T23:21:18.422Z","22.00","39.00"
"2016-11-29T23:22:18.434Z","22.00","39.00"
"2016-11-29T23:23:18.522Z","22.00","39.00"
"2016-11-29T23:24:18.524Z","22.00","38.00"
"2016-11-29T23:25:18.448Z","22.00","38.00"
"2016-11-29T23:26:18.528Z","22.00","38.00"
"2016-11-29T23:27:18.427Z","22.00","38.00"
"2016-11-29T23:28:18.456Z","22.00","38.00"
"2016-11-29T23:29:18.429Z","22.00","38.00"
"2016-11-29T23:30:18.532Z","22.00","38.00"
"2016-11-29T23:31:18.545Z","22.00","38.00"
"2016-11-29T23:32:18.622Z","22.00","38.00"
"2016-11-29T23:33:18.453Z","22.00","38.00"
"2016-11-29T23:34:18.451Z","22.00","38.00"
"2016-11-29T23:35:18.451Z","22.00","38.00"
"2016-11-29T23:36:18.476Z","22.00","38.00"
"2016-11-29T23:37:18.432Z","22.00","38.00"
"2016-11-29T23:38:18.437Z","22.00","38.00"
"2016-11-29T23:39:18.452Z","22.00","38.00"
"2016-11-29T23:40:18.441Z","22.00","38.00"
"2016-11-29T23:41:18.522Z","22.00","38.00"
"2016-11-29T23:42:18.468Z","22.00","38.00"
"2016-11-29T23:43:18.465Z","22.00","38.00"
"2016-11-29T23:44:18.453Z","22.00","38.00"
"2016-11-29T23:45:18.464Z","22.00","38.00"
"2016-11-29T23:46:18.668Z","22.00","38.00"
"2016-11-29T23:47:18.523Z","22.00","38.00"
"2016-11-29T23:48:18.528Z","22.00","38.00"
"2016-11-29T23:49:18.480Z","22.00","38.00"
"2016-11-29T23:50:18.484Z","22.00","38.00"
"2016-11-29T23:51:18.492Z","22.00","38.00"
"2016-11-29T23:52:18.498Z","22.00","38.00"
"2016-11-29T23:53:18.460Z","22.00","38.00"
"2016-11-29T23:54:18.524Z","22.00","38.00"
"2016-11-29T23:55:18.469Z","22.00","38.00"
"2016-11-29T23:56:18.522Z","22.00","38.00"
"2016-11-29T23:57:18.497Z","22.00","38.00"
"2016-11-29T23:58:18.464Z","22.00","38.00"
"2016-11-29T23:59:18.471Z","22.00","38.00"
"2016-11-30T00:00:18.474Z","22.00","38.00"
"2016-11-30T00:01:18.472Z","22.00","38.00"
"2016-11-30T00:02:18.483Z","22.00","38.00"
"2016-11-30T00:03:18.477Z","22.00","38.00"
"2016-11-30T00:04:18.478Z","22.00","38.00"
"2016-11-30T00:05:18.483Z","22.00","38.00"
"2016-11-30T00:06:18.485Z","22.00","38.00"
"2016-11-30T00:07:18.510Z","22.00","38.00"
"2016-11-30T00:08:18.497Z","22.00","38.00"
"2016-11-30T00:09:18.522Z","22.00","38.00"
"2016-11-30T00:10:18.513Z","22.00","38.00"
"2016-11-30T00:11:18.513Z","22.00","38.00"
"2016-11-30T00:12:18.526Z","22.00","38.00"
"2016-11-30T00:13:18.508Z","22.00","38.00"
"2016-11-30T00:14:18.487Z","22.00","38.00"
"2016-11-30T00:15:18.495Z","22.00","37.00"
"2016-11-30T00:16:18.507Z","22.00","37.00"
"2016-11-30T00:17:18.519Z","22.00","37.00"
"2016-11-30T00:18:18.509Z","22.00","37.00"
"2016-11-30T00:19:18.533Z","22.00","37.00"
"2016-11-30T00:20:18.498Z","22.00","37.00"
"2016-11-30T00:21:18.526Z","22.00","37.00"
"2016-11-30T00:22:18.502Z","22.00","37.00"
"2016-11-30T00:23:18.518Z","22.00","37.00"
"2016-11-30T00:24:18.519Z","22.00","37.00"
"2016-11-30T00:25:18.524Z","22.00","37.00"
"2016-11-30T00:26:18.530Z","22.00","37.00"
"2016-11-30T00:27:18.521Z","22.00","37.00"
"2016-11-30T00:28:18.527Z","22.00","37.00"
"2016-11-30T00:29:18.534Z","22.00","37.00"
"2016-11-30T00:30:18.631Z","22.00","37.00"
"2016-11-30T00:31:18.547Z","22.00","37.00"
"2016-11-30T00:32:18.543Z","22.00","37.00"
"2016-11-30T00:33:18.565Z","22.00","37.00"
"2016-11-30T00:34:18.568Z","22.00","37.00"
"2016-11-30T00:35:18.529Z","22.00","37.00"
"2016-11-30T00:36:18.535Z","22.00","37.00"
"2016-11-30T00:37:18.527Z","22.00","37.00"
"2016-11-30T00:38:18.535Z","22.00","37.00"
"2016-11-30T00:39:18.625Z","22.00","37.00"
"2016-11-30T00:40:18.626Z","22.00","37.00"
"2016-11-30T00:41:18.543Z","22.00","37.00"
"2016-11-30T00:42:18.582Z","22.00","37.00"
"2016-11-30T00:43:18.550Z","22.00","37.00"
"2016-11-30T00:44:18.549Z","22.00","37.00"
"2016-11-30T00:45:18.557Z","22.00","37.00"
"2016-11-30T00:46:18.554Z","22.00","37.00"
"2016-11-30T00:47:18.549Z","22.00","37.00"
"2016-11-30T00:48:18.569Z","22.00","37.00"
"2016-11-30T00:49:18.554Z","22.00","37.00"
"2016-11-30T00:50:18.575Z","22.00","37.00"
"2016-11-30T00:51:18.558Z","22.00","37.00"
"2016-11-30T00:52:18.579Z","22.00","37.00"
"2016-11-30T00:53:18.628Z","22.00","37.00"
"2016-11-30T00:54:18.636Z","22.00","37.00"
"2016-11-30T00:55:18.573Z","22.00","37.00"
"2016-11-30T00:56:18.622Z","22.00","37.00"
"2016-11-30T00:57:18.628Z","22.00","37.00"
"2016-11-30T00:58:18.614Z","22.00","37.00"
"2016-11-30T00:59:18.579Z","22.00","37.00"
"2016-11-30T01:00:18.586Z","22.00","37.00"
"2016-11-30T01:01:18.590Z","22.00","37.00"
"2016-11-30T01:02:18.582Z","22.00","37.00"
"2016-11-30T01:03:18.580Z","22.00","37.00"
"2016-11-30T01:04:18.604Z","22.00","37.00"
"2016-11-30T01:05:18.607Z","22.00","37.00"
"2016-11-30T01:06:18.601Z","22.00","37.00"
"2016-11-30T01:07:18.591Z","22.00","37.00"
"2016-11-30T01:08:18.736Z","22.00","37.00"
"2016-11-30T01:09:18.581Z","22.00","37.00"
"2016-11-30T01:10:18.588Z","22.00","37.00"
"2016-11-30T01:11:18.625Z","22.00","37.00"
"2016-11-30T01:12:18.614Z","22.00","37.00"
"2016-11-30T01:13:18.609Z","22.00","37.00"
"2016-11-30T01:14:18.594Z","22.00","37.00"
"2016-11-30T01:15:18.623Z","22.00","37.00"
"2016-11-30T01:16:18.606Z","22.00","37.00"
"2016-11-30T01:17:18.602Z","22.00","37.00"
"2016-11-30T01:18:18.731Z","22.00","37.00"
"2016-11-30T01:19:18.727Z","22.00","37.00"
"2016-11-30T01:20:18.649Z","22.00","37.00"
"2016-11-30T01:21:18.610Z","22.00","37.00"
"2016-11-30T01:22:18.610Z","22.00","37.00"
"2016-11-30T01:23:18.727Z","22.00","37.00"
"2016-11-30T01:24:18.618Z","22.00","37.00"
"2016-11-30T01:25:18.615Z","22.00","37.00"
"2016-11-30T01:26:18.641Z","22.00","37.00"
"2016-11-30T01:27:18.642Z","22.00","37.00"
"2016-11-30T01:28:18.618Z","22.00","37.00"
"2016-11-30T01:29:18.656Z","22.00","37.00"
"2016-11-30T01:30:18.721Z","22.00","37.00"
"2016-11-30T01:31:18.626Z","22.00","37.00"
"2016-11-30T01:32:18.615Z","22.00","37.00"
"2016-11-30T01:33:18.833Z","22.00","37.00"
"2016-11-30T01:34:18.662Z","22.00","37.00"
"2016-11-30T01:35:18.623Z","22.00","37.00"
"2016-11-30T01:36:18.640Z","22.00","37.00"
"2016-11-30T01:37:18.725Z","22.00","36.00"
"2016-11-30T01:38:18.639Z","22.00","36.00"
"2016-11-30T01:39:18.644Z","22.00","37.00"
"2016-11-30T01:40:18.656Z","22.00","36.00"
"2016-11-30T01:41:18.822Z","22.00","36.00"
"2016-11-30T01:42:18.662Z","22.00","36.00"
"2016-11-30T01:43:18.639Z","22.00","36.00"
"2016-11-30T01:44:18.672Z","22.00","36.00"
"2016-11-30T01:45:18.643Z","22.00","36.00"
"2016-11-30T01:46:18.635Z","22.00","36.00"
"2016-11-30T01:47:18.655Z","22.00","36.00"
"2016-11-30T01:48:18.643Z","22.00","36.00"
"2016-11-30T01:49:18.732Z","22.00","36.00"
"2016-11-30T01:50:18.653Z","22.00","36.00"
"2016-11-30T01:51:18.673Z","22.00","36.00"
"2016-11-30T01:52:18.660Z","22.00","36.00"
"2016-11-30T01:53:18.648Z","22.00","36.00"
"2016-11-30T01:54:18.658Z","22.00","36.00"
"2016-11-30T01:55:18.662Z","22.00","36.00"
"2016-11-30T01:56:18.673Z","22.00","36.00"
"2016-11-30T01:57:18.714Z","22.00","36.00"
"2016-11-30T01:58:18.681Z","22.00","36.00"
"2016-11-30T01:59:18.693Z","22.00","36.00"
"2016-11-30T02:00:18.674Z","22.00","36.00"
"2016-11-30T02:01:18.727Z","22.00","36.00"
"2016-11-30T02:02:18.820Z","22.00","36.00"
"2016-11-30T02:03:21.727Z","22.00","36.00"
"2016-11-30T02:04:21.654Z","22.00","36.00"
"2016-11-30T02:05:21.845Z","22.00","36.00"
"2016-11-30T02:06:21.657Z","22.00","36.00"
"2016-11-30T02:07:21.666Z","22.00","36.00"
"2016-11-30T02:08:18.681Z","22.00","36.00"
"2016-11-30T02:09:18.825Z","22.00","36.00"
"2016-11-30T02:10:18.726Z","22.00","36.00"
"2016-11-30T02:11:18.703Z","22.00","36.00"
"2016-11-30T02:12:18.707Z","22.00","36.00"
"2016-11-30T02:13:18.684Z","22.00","36.00"
"2016-11-30T02:14:18.682Z","22.00","36.00"
"2016-11-30T02:15:18.728Z","22.00","36.00"
"2016-11-30T02:16:18.703Z","22.00","36.00"
"2016-11-30T02:17:18.720Z","22.00","36.00"
"2016-11-30T02:18:18.821Z","22.00","36.00"
"2016-11-30T02:19:18.712Z","22.00","36.00"
"2016-11-30T02:20:18.701Z","22.00","36.00"
"2016-11-30T02:21:18.694Z","22.00","36.00"
"2016-11-30T02:22:18.730Z","22.00","36.00"
"2016-11-30T02:23:18.715Z","22.00","36.00"
"2016-11-30T02:24:18.743Z","22.00","36.00"
"2016-11-30T02:25:18.793Z","22.00","36.00"
"2016-11-30T02:26:18.732Z","22.00","36.00"
"2016-11-30T02:27:18.751Z","22.00","36.00"
"2016-11-30T02:28:18.754Z","22.00","36.00"
"2016-11-30T02:29:18.717Z","22.00","36.00"
"2016-11-30T02:30:18.715Z","22.00","36.00"
"2016-11-30T02:31:18.730Z","22.00","36.00"
"2016-11-30T02:32:18.733Z","22.00","36.00"
"2016-11-30T02:33:18.727Z","22.00","36.00"
"2016-11-30T02:34:18.716Z","22.00","36.00"
"2016-11-30T02:35:18.828Z","22.00","36.00"
"2016-11-30T02:36:18.838Z","22.00","36.00"
"2016-11-30T02:37:18.826Z","22.00","36.00"
"2016-11-30T02:38:18.732Z","22.00","36.00"
"2016-11-30T02:39:18.739Z","22.00","35.00"
"2016-11-30T02:40:18.735Z","22.00","35.00"
"2016-11-30T02:41:18.756Z","22.00","35.00"
"2016-11-30T02:42:18.825Z","22.00","35.00"
"2016-11-30T02:44:18.748Z","22.00","35.00"
"2016-11-30T02:45:18.798Z","22.00","35.00"
"2016-11-30T02:46:18.773Z","22.00","35.00"
"2016-11-30T02:47:18.754Z","22.00","35.00"
"2016-11-30T02:49:18.780Z","22.00","35.00"
"2016-11-30T02:50:18.770Z","22.00","35.00"
"2016-11-30T02:51:18.924Z","22.00","35.00"
"2016-11-30T02:52:18.764Z","22.00","35.00"
"2016-11-30T02:53:18.774Z","22.00","35.00"
"2016-11-30T02:54:18.804Z","22.00","35.00"
"2016-11-30T02:55:18.772Z","22.00","35.00"
"2016-11-30T02:56:18.786Z","22.00","35.00"
"2016-11-30T02:57:18.786Z","22.00","35.00"
"2016-11-30T02:58:18.783Z","22.00","35.00"
"2016-11-30T02:59:18.791Z","22.00","35.00"
"2016-11-30T03:00:18.787Z","22.00","35.00"
"2016-11-30T03:01:18.828Z","22.00","35.00"
"2016-11-30T03:02:18.863Z","22.00","35.00"
"2016-11-30T03:03:18.796Z","22.00","35.00"
"2016-11-30T03:04:18.837Z","22.00","35.00"
"2016-11-30T03:05:18.819Z","22.00","35.00"
"2016-11-30T03:06:18.825Z","22.00","35.00"
"2016-11-30T03:07:18.835Z","22.00","35.00"
"2016-11-30T03:09:16.301Z","22.00","35.00"
"2016-11-30T03:10:18.816Z","22.00","35.00"
"2016-11-30T03:11:18.824Z","22.00","35.00"
"2016-11-30T03:12:18.846Z","22.00","35.00"
"2016-11-30T03:13:18.821Z","22.00","35.00"
"2016-11-30T03:14:18.815Z","22.00","35.00"
"2016-11-30T03:15:18.825Z","22.00","35.00"
"2016-11-30T03:16:18.828Z","22.00","35.00"
"2016-11-30T03:17:18.837Z","22.00","35.00"
"2016-11-30T03:18:18.825Z","22.00","35.00"
"2016-11-30T03:19:18.847Z","22.00","35.00"
"2016-11-30T03:20:18.863Z","22.00","35.00"
"2016-11-30T03:21:18.923Z","22.00","35.00"
"2016-11-30T03:22:18.929Z","22.00","35.00"
"2016-11-30T03:23:18.932Z","22.00","35.00"
"2016-11-30T03:24:18.885Z","22.00","35.00"
"2016-11-30T03:25:18.891Z","22.00","35.00"
"2016-11-30T03:26:18.895Z","22.00","35.00"
"2016-11-30T03:27:18.862Z","22.00","35.00"
"2016-11-30T03:28:18.922Z","22.00","35.00"
"2016-11-30T03:29:18.860Z","22.00","35.00"
"2016-11-30T03:30:18.869Z","22.00","35.00"
"2016-11-30T03:31:18.874Z","22.00","35.00"
"2016-11-30T03:32:18.898Z","22.00","35.00"
"2016-11-30T03:33:18.930Z","22.00","35.00"
"2016-11-30T03:34:18.874Z","22.00","35.00"
"2016-11-30T03:35:18.881Z","22.00","35.00"
"2016-11-30T03:36:18.930Z","22.00","35.00"
"2016-11-30T03:37:18.926Z","22.00","34.00"
"2016-11-30T03:38:18.932Z","22.00","35.00"
"2016-11-30T03:39:18.911Z","22.00","35.00"
"2016-11-30T03:40:18.889Z","22.00","35.00"
"2016-11-30T03:41:18.903Z","22.00","35.00"
"2016-11-30T03:42:18.904Z","22.00","35.00"
"2016-11-30T03:43:18.913Z","22.00","35.00"
"2016-11-30T03:44:18.927Z","22.00","35.00"
"2016-11-30T03:45:18.906Z","22.00","34.00"
"2016-11-30T03:46:18.955Z","22.00","34.00"
"2016-11-30T03:47:18.919Z","22.00","34.00"
"2016-11-30T03:48:18.932Z","22.00","34.00"
"2016-11-30T03:49:18.910Z","22.00","34.00"
"2016-11-30T03:50:18.910Z","22.00","34.00"
"2016-11-30T03:51:19.027Z","22.00","34.00"
"2016-11-30T03:52:18.929Z","22.00","34.00"
"2016-11-30T03:53:18.933Z","22.00","34.00"
"2016-11-30T03:54:19.022Z","22.00","34.00"
"2016-11-30T03:55:18.948Z","22.00","34.00"
"2016-11-30T03:56:18.932Z","22.00","34.00"
"2016-11-30T03:57:18.929Z","22.00","34.00"
"2016-11-30T03:58:18.935Z","22.00","34.00"
"2016-11-30T03:59:18.935Z","22.00","34.00"
"2016-11-30T04:00:19.039Z","22.00","34.00"
"2016-11-30T04:01:18.934Z","22.00","34.00"
"2016-11-30T04:02:18.947Z","22.00","34.00"
"2016-11-30T04:03:18.977Z","22.00","34.00"
"2016-11-30T04:04:18.973Z","22.00","34.00"
"2016-11-30T04:05:18.989Z","22.00","34.00"
"2016-11-30T04:06:18.986Z","22.00","34.00"
"2016-11-30T04:07:18.996Z","22.00","34.00"
"2016-11-30T04:08:19.033Z","22.00","34.00"
"2016-11-30T04:09:18.994Z","22.00","34.00"
"2016-11-30T04:10:19.022Z","22.00","34.00"
"2016-11-30T04:11:19.049Z","22.00","34.00"
"2016-11-30T04:13:15.590Z","22.00","34.00"
"2016-11-30T04:14:13.323Z","22.00","34.00"
"2016-11-30T04:15:12.231Z","22.00","34.00"
"2016-11-30T04:16:12.438Z","22.00","34.00"
"2016-11-30T04:17:12.126Z","22.00","34.00"
"2016-11-30T04:18:12.252Z","22.00","34.00"
"2016-11-30T04:19:12.016Z","22.00","34.00"
"2016-11-30T04:20:12.149Z","22.00","34.00"
"2016-11-30T04:21:12.015Z","22.00","34.00"
"2016-11-30T04:22:12.330Z","22.00","34.00"
"2016-11-30T04:23:12.010Z","22.00","34.00"
"2016-11-30T04:24:12.038Z","22.00","34.00"
"2016-11-30T04:25:12.044Z","22.00","34.00"
"2016-11-30T04:27:56.272Z","22.00","34.00"
"2016-11-30T04:28:56.324Z","22.00","34.00"
"2016-11-30T04:29:56.058Z","22.00","34.00"
"2016-11-30T04:31:40.641Z","22.00","34.00"
"2016-11-30T04:32:40.079Z","22.00","34.00"
"2016-11-30T04:33:41.288Z","22.00","34.00"
"2016-11-30T04:34:41.328Z","22.00","34.00"
"2016-11-30T04:35:41.025Z","22.00","34.00"
"2016-11-30T04:36:41.031Z","22.00","34.00"
"2016-11-30T04:37:41.340Z","22.00","34.00"
"2016-11-30T04:38:41.046Z","22.00","34.00"
"2016-11-30T04:39:41.296Z","22.00","34.00"
"2016-11-30T04:40:41.047Z","22.00","34.00"
"2016-11-30T04:42:34.155Z","22.00","34.00"
"2016-11-30T04:43:34.205Z","22.00","34.00"
"2016-11-30T04:44:34.124Z","22.00","34.00"
"2016-11-30T04:46:18.146Z","22.00","34.00"
"2016-11-30T04:47:18.625Z","22.00","34.00"
"2016-11-30T04:48:19.142Z","22.00","34.00"
"2016-11-30T04:49:19.087Z","22.00","34.00"
"2016-11-30T04:50:19.128Z","22.00","34.00"
"2016-11-30T04:51:19.057Z","22.00","34.00"
"2016-11-30T04:52:19.043Z","22.00","34.00"
"2016-11-30T04:53:19.123Z","22.00","34.00"
"2016-11-30T04:54:19.096Z","22.00","34.00"
"2016-11-30T04:55:19.125Z","22.00","34.00"
"2016-11-30T04:56:19.063Z","22.00","34.00"
"2016-11-30T04:57:19.052Z","22.00","34.00"
"2016-11-30T04:58:19.079Z","22.00","34.00"
"2016-11-30T04:59:19.055Z","22.00","34.00"
"2016-11-30T05:00:19.056Z","22.00","34.00"
"2016-11-30T05:01:19.077Z","22.00","33.00"
"2016-11-30T05:02:19.085Z","22.00","33.00"
"2016-11-30T05:03:19.078Z","22.00","33.00"
"2016-11-30T05:04:19.229Z","22.00","33.00"
"2016-11-30T05:05:19.086Z","22.00","33.00"
"2016-11-30T05:06:19.098Z","22.00","33.00"
"2016-11-30T05:07:19.087Z","22.00","33.00"
"2016-11-30T05:08:19.123Z","22.00","33.00"
"2016-11-30T05:09:19.076Z","22.00","33.00"
"2016-11-30T05:10:19.084Z","22.00","33.00"
"2016-11-30T05:12:19.095Z","22.00","33.00"
"2016-11-30T05:13:15.909Z","22.00","33.00"
"2016-11-30T05:14:13.674Z","22.00","33.00"
"2016-11-30T05:15:12.759Z","22.00","33.00"
"2016-11-30T05:16:12.832Z","22.00","33.00"
"2016-11-30T05:17:12.107Z","22.00","33.00"
"2016-11-30T05:18:12.111Z","22.00","33.00"
"2016-11-30T05:19:12.344Z","22.00","33.00"
"2016-11-30T05:20:12.332Z","22.00","33.00"
"2016-11-30T05:21:12.329Z","22.00","33.00"
"2016-11-30T05:22:12.476Z","22.00","33.00"
"2016-11-30T05:23:12.070Z","22.00","33.00"
"2016-11-30T05:24:12.086Z","22.00","33.00"
"2016-11-30T05:25:12.170Z","22.00","33.00"
"2016-11-30T05:26:12.259Z","22.00","33.00"
"2016-11-30T05:27:12.078Z","22.00","33.00"
"2016-11-30T05:28:12.082Z","22.00","33.00"
"2016-11-30T05:29:12.251Z","22.00","33.00"
"2016-11-30T05:30:12.114Z","22.00","33.00"
"2016-11-30T05:31:12.320Z","22.00","33.00"
"2016-11-30T05:32:12.145Z","22.00","33.00"
"2016-11-30T05:33:12.456Z","22.00","33.00"
"2016-11-30T05:34:12.253Z","22.00","33.00"
"2016-11-30T05:35:12.455Z","22.00","33.00"
"2016-11-30T05:36:12.147Z","22.00","33.00"
"2016-11-30T05:37:12.365Z","22.00","33.00"
"2016-11-30T05:38:12.074Z","22.00","33.00"
"2016-11-30T05:39:12.335Z","22.00","33.00"
"2016-11-30T05:41:08.982Z","22.00","33.00"
"2016-11-30T05:42:06.109Z","22.00","33.00"
"2016-11-30T05:43:03.108Z","22.00","33.00"
"2016-11-30T05:44:03.110Z","22.00","33.00"
"2016-11-30T05:45:03.113Z","22.00","33.00"
"2016-11-30T05:46:03.375Z","22.00","33.00"
"2016-11-30T05:47:03.125Z","22.00","33.00"
"2016-11-30T05:48:03.175Z","22.00","33.00"
"2016-11-30T05:49:03.283Z","22.00","33.00"
"2016-11-30T05:50:03.402Z","22.00","33.00"
"2016-11-30T05:51:03.125Z","22.00","33.00"
"2016-11-30T05:52:03.366Z","22.00","33.00"
"2016-11-30T05:53:03.238Z","22.00","33.00"
"2016-11-30T05:54:03.297Z","22.00","33.00"
"2016-11-30T05:55:03.373Z","22.00","33.00"
"2016-11-30T05:56:03.140Z","22.00","33.00"
"2016-11-30T05:57:03.325Z","22.00","33.00"
"2016-11-30T05:58:03.119Z","22.00","33.00"
"2016-11-30T05:59:03.280Z","22.00","33.00"
"2016-11-30T06:00:03.133Z","22.00","33.00"
"2016-11-30T06:01:03.236Z","22.00","33.00"
"2016-11-30T06:02:03.473Z","22.00","33.00"
"2016-11-30T06:03:03.579Z","22.00","33.00"
"2016-11-30T06:04:03.290Z","22.00","33.00"
"2016-11-30T06:05:03.379Z","22.00","33.00"
"2016-11-30T06:06:03.227Z","22.00","33.00"
"2016-11-30T06:07:03.149Z","22.00","33.00"
"2016-11-30T06:08:03.135Z","22.00","34.00"
"2016-11-30T06:09:03.213Z","22.00","35.00"
"2016-11-30T06:10:03.133Z","22.00","36.00"
"2016-11-30T06:12:56.159Z","22.00","38.00"
"2016-11-30T06:13:53.422Z","22.00","37.00"
"2016-11-30T06:15:31.591Z","22.00","37.00"
"2016-11-30T06:16:29.483Z","22.00","36.00"
"2016-11-30T06:17:28.181Z","22.00","36.00"
"2016-11-30T06:18:28.170Z","22.00","37.00"
"2016-11-30T06:19:28.129Z","22.00","37.00"
"2016-11-30T06:20:28.140Z","22.00","37.00"
"2016-11-30T06:21:28.472Z","22.00","37.00"
"2016-11-30T06:22:28.120Z","22.00","37.00"
"2016-11-30T06:23:28.166Z","22.00","37.00"
"2016-11-30T06:24:28.132Z","22.00","36.00"
"2016-11-30T06:25:28.321Z","22.00","36.00"
"2016-11-30T06:26:28.111Z","22.00","36.00"
"2016-11-30T06:27:28.122Z","22.00","36.00"
"2016-11-30T06:28:28.322Z","22.00","36.00"
"2016-11-30T06:29:28.127Z","22.00","36.00"
"2016-11-30T06:30:28.162Z","22.00","36.00"
"2016-11-30T06:31:28.141Z","22.00","36.00"
"2016-11-30T06:32:28.127Z","22.00","35.00"
"2016-11-30T06:33:28.434Z","22.00","35.00"
"2016-11-30T06:34:28.232Z","22.00","35.00"
"2016-11-30T06:35:28.220Z","22.00","35.00"
"2016-11-30T06:36:28.224Z","22.00","35.00"
"2016-11-30T06:37:28.150Z","22.00","35.00"
"2016-11-30T06:38:28.176Z","22.00","35.00"
"2016-11-30T06:39:28.144Z","22.00","35.00"
"2016-11-30T06:40:28.225Z","22.00","35.00"
"2016-11-30T06:41:28.144Z","22.00","35.00"
"2016-11-30T06:42:28.166Z","22.00","35.00"
"2016-11-30T06:43:28.144Z","22.00","35.00"
"2016-11-30T06:44:28.159Z","22.00","34.00"
"2016-11-30T06:45:28.130Z","22.00","34.00"
"2016-11-30T06:46:28.168Z","22.00","34.00"
"2016-11-30T06:47:28.225Z","22.00","34.00"
"2016-11-30T06:48:28.430Z","22.00","34.00"
"2016-11-30T06:49:28.175Z","22.00","34.00"
"2016-11-30T06:50:28.241Z","22.00","34.00"
"2016-11-30T06:51:28.149Z","22.00","34.00"
"2016-11-30T06:52:28.326Z","22.00","34.00"
"2016-11-30T06:53:28.155Z","22.00","34.00"
"2016-11-30T06:54:28.173Z","22.00","34.00"
"2016-11-30T06:55:28.169Z","22.00","34.00"
"2016-11-30T06:56:28.184Z","22.00","34.00"
"2016-11-30T06:57:28.250Z","22.00","34.00"
"2016-11-30T06:58:28.331Z","22.00","34.00"
"2016-11-30T06:59:28.168Z","22.00","34.00"
"2016-11-30T07:00:28.185Z","22.00","34.00"
"2016-11-30T07:01:28.167Z","22.00","34.00"
"2016-11-30T07:02:28.522Z","22.00","34.00"
"2016-11-30T07:03:28.452Z","22.00","34.00"
"2016-11-30T07:04:28.203Z","22.00","34.00"
"2016-11-30T07:05:28.215Z","22.00","34.00"
"2016-11-30T07:06:28.427Z","22.00","33.00"
"2016-11-30T07:07:28.189Z","22.00","34.00"
"2016-11-30T07:08:28.185Z","22.00","33.00"
"2016-11-30T07:09:28.428Z","22.00","33.00"
"2016-11-30T07:10:28.426Z","22.00","33.00"
"2016-11-30T07:11:28.182Z","22.00","33.00"
"2016-11-30T07:12:28.172Z","22.00","33.00"
"2016-11-30T07:13:28.425Z","22.00","33.00"
"2016-11-30T07:14:28.523Z","22.00","33.00"
"2016-11-30T07:15:28.195Z","22.00","33.00"
"2016-11-30T07:16:28.218Z","22.00","33.00"
"2016-11-30T07:17:28.200Z","22.00","33.00"
"2016-11-30T07:18:28.218Z","22.00","33.00"
"2016-11-30T07:19:28.202Z","22.00","33.00"
"2016-11-30T07:20:28.323Z","22.00","33.00"
"2016-11-30T07:21:28.270Z","22.00","33.00"
"2016-11-30T07:22:28.189Z","22.00","33.00"
"2016-11-30T07:23:28.196Z","22.00","33.00"
"2016-11-30T07:24:28.320Z","22.00","33.00"
"2016-11-30T07:25:28.208Z","22.00","33.00"
"2016-11-30T07:26:28.319Z","22.00","33.00"
"2016-11-30T07:27:28.281Z","22.00","33.00"
"2016-11-30T07:28:28.193Z","22.00","33.00"
"2016-11-30T07:29:28.215Z","22.00","33.00"
"2016-11-30T07:30:28.336Z","22.00","33.00"
"2016-11-30T07:31:28.214Z","22.00","33.00"
"2016-11-30T07:32:28.235Z","22.00","33.00"
"2016-11-30T07:33:28.226Z","22.00","33.00"
"2016-11-30T07:34:28.533Z","22.00","33.00"
"2016-11-30T07:35:28.422Z","22.00","33.00"
"2016-11-30T07:36:28.219Z","22.00","33.00"
"2016-11-30T07:37:28.229Z","22.00","33.00"
"2016-11-30T07:38:28.236Z","22.00","33.00"
"2016-11-30T07:39:28.232Z","22.00","32.00"
"2016-11-30T07:40:28.262Z","22.00","33.00"
"2016-11-30T07:41:28.246Z","22.00","32.00"
"2016-11-30T07:42:28.274Z","22.00","32.00"
"2016-11-30T07:43:28.458Z","22.00","32.00"
"2016-11-30T07:44:28.212Z","22.00","32.00"
"2016-11-30T07:45:28.222Z","22.00","32.00"
"2016-11-30T07:46:28.231Z","22.00","32.00"
"2016-11-30T07:47:28.262Z","22.00","32.00"
"2016-11-30T07:48:28.275Z","22.00","32.00"
"2016-11-30T07:49:28.532Z","22.00","32.00"
"2016-11-30T07:50:28.329Z","22.00","32.00"
"2016-11-30T07:51:28.622Z","22.00","32.00"
"2016-11-30T07:52:28.240Z","22.00","32.00"
"2016-11-30T07:53:28.247Z","22.00","32.00"
"2016-11-30T07:54:28.234Z","22.00","32.00"
"2016-11-30T07:55:28.257Z","22.00","32.00"
"2016-11-30T07:56:28.428Z","22.00","32.00"
"2016-11-30T07:57:28.225Z","22.00","32.00"
"2016-11-30T07:58:28.422Z","22.00","32.00"
"2016-11-30T07:59:28.252Z","22.00","32.00"
"2016-11-30T08:00:28.247Z","22.00","32.00"
"2016-11-30T08:01:28.255Z","22.00","32.00"
"2016-11-30T08:02:28.627Z","22.00","32.00"
"2016-11-30T08:03:41.493Z","22.00","32.00"
"2016-11-30T08:04:41.447Z","22.00","32.00"
"2016-11-30T08:05:41.401Z","22.00","32.00"
"2016-11-30T08:06:41.406Z","22.00","32.00"
"2016-11-30T08:07:41.401Z","22.00","32.00"
"2016-11-30T08:08:41.497Z","22.00","32.00"
"2016-11-30T08:09:41.434Z","22.00","32.00"
"2016-11-30T08:10:41.429Z","22.00","32.00"
"2016-11-30T08:11:41.418Z","22.00","32.00"
"2016-11-30T08:12:41.499Z","22.00","32.00"
"2016-11-30T08:13:41.477Z","22.00","32.00"
"2016-11-30T08:14:41.483Z","22.00","32.00"
"2016-11-30T08:15:41.503Z","22.00","32.00"
"2016-11-30T08:16:41.430Z","22.00","32.00"
"2016-11-30T08:17:41.415Z","22.00","32.00"
"2016-11-30T08:18:41.492Z","22.00","32.00"
"2016-11-30T08:19:41.394Z","22.00","32.00"
"2016-11-30T08:20:41.533Z","22.00","31.00"
"2016-11-30T08:21:41.399Z","22.00","31.00"
"2016-11-30T08:22:41.574Z","22.00","32.00"
"2016-11-30T08:23:41.438Z","22.00","32.00"
"2016-11-30T08:24:41.462Z","22.00","32.00"
"2016-11-30T08:25:41.605Z","22.00","32.00"
"2016-11-30T08:26:41.625Z","22.00","32.00"
"2016-11-30T08:27:41.457Z","22.00","32.00"
"2016-11-30T08:28:41.499Z","22.00","32.00"
"2016-11-30T08:29:41.445Z","22.00","32.00"
"2016-11-30T08:30:41.631Z","22.00","32.00"
"2016-11-30T08:31:41.469Z","22.00","32.00"
"2016-11-30T08:32:41.566Z","22.00","32.00"
"2016-11-30T08:33:41.451Z","22.00","33.00"
"2016-11-30T08:34:41.514Z","22.00","33.00"
"2016-11-30T08:35:41.702Z","22.00","33.00"
"2016-11-30T08:36:41.770Z","22.00","34.00"
"2016-11-30T08:37:41.534Z","22.00","34.00"
"2016-11-30T08:38:41.644Z","22.00","34.00"
"2016-11-30T08:39:41.500Z","22.00","35.00"
"2016-11-30T08:40:41.520Z","22.00","35.00"
"2016-11-30T08:41:41.527Z","22.00","36.00"
"2016-11-30T08:42:41.465Z","22.00","36.00"
"2016-11-30T08:43:41.474Z","22.00","36.00"
"2016-11-30T08:44:41.614Z","22.00","37.00"
"2016-11-30T08:45:41.468Z","22.00","37.00"
"2016-11-30T08:46:41.524Z","22.00","37.00"
"2016-11-30T08:47:41.460Z","22.00","38.00"
"2016-11-30T08:48:41.497Z","22.00","38.00"
"2016-11-30T08:49:41.539Z","22.00","38.00"
"2016-11-30T08:50:41.472Z","22.00","38.00"
"2016-11-30T08:51:41.524Z","22.00","38.00"
"2016-11-30T08:52:41.521Z","22.00","38.00"
"2016-11-30T08:53:41.708Z","22.00","38.00"
"2016-11-30T08:55:13.024Z","22.00","38.00"
"2016-11-30T08:56:12.623Z","22.00","38.00"
"2016-11-30T08:57:12.360Z","22.00","38.00"
"2016-11-30T08:58:12.477Z","22.00","37.00"
"2016-11-30T08:59:12.345Z","22.00","37.00"
"2016-11-30T09:00:12.656Z","22.00","37.00"
"2016-11-30T09:01:12.348Z","22.00","37.00"
"2016-11-30T09:02:12.358Z","22.00","37.00"
"2016-11-30T09:03:12.312Z","22.00","36.00"
"2016-11-30T09:04:12.590Z","22.00","36.00"
"2016-11-30T09:05:12.393Z","22.00","36.00"
"2016-11-30T09:06:12.608Z","22.00","36.00"
"2016-11-30T09:07:12.401Z","22.00","36.00"
"2016-11-30T09:08:12.333Z","22.00","36.00"
"2016-11-30T09:09:12.378Z","22.00","36.00"
"2016-11-30T09:10:12.723Z","22.00","36.00"
"2016-11-30T09:11:12.974Z","22.00","36.00"
"2016-11-30T09:12:12.824Z","22.00","36.00"
"2016-11-30T09:13:12.549Z","22.00","36.00"
"2016-11-30T09:14:12.524Z","22.00","36.00"
"2016-11-30T09:15:12.362Z","22.00","36.00"
"2016-11-30T09:16:12.578Z","22.00","35.00"
"2016-11-30T09:17:12.401Z","22.00","35.00"
"2016-11-30T09:18:12.344Z","22.00","35.00"
"2016-11-30T09:19:12.922Z","22.00","35.00"
"2016-11-30T09:20:12.371Z","22.00","35.00"
"2016-11-30T09:21:12.455Z","22.00","35.00"
"2016-11-30T09:22:12.616Z","22.00","35.00"
"2016-11-30T09:23:12.445Z","22.00","35.00"
"2016-11-30T09:24:12.332Z","22.00","35.00"
"2016-11-30T09:25:12.454Z","22.00","35.00"
"2016-11-30T09:26:12.577Z","22.00","35.00"
"2016-11-30T09:27:12.522Z","22.00","35.00"
"2016-11-30T09:28:12.674Z","22.00","35.00"
"2016-11-30T09:29:12.374Z","22.00","35.00"
"2016-11-30T09:30:12.571Z","22.00","35.00"
"2016-11-30T09:31:12.537Z","22.00","35.00"
"2016-11-30T09:32:12.660Z","22.00","35.00"
"2016-11-30T09:33:12.653Z","22.00","35.00"
"2016-11-30T09:34:12.361Z","22.00","35.00"
"2016-11-30T09:35:12.372Z","22.00","35.00"
"2016-11-30T09:36:12.826Z","22.00","35.00"
"2016-11-30T09:37:12.929Z","22.00","35.00"
"2016-11-30T09:38:12.551Z","22.00","34.00"
"2016-11-30T09:39:12.760Z","22.00","34.00"
"2016-11-30T09:40:12.725Z","22.00","34.00"
"2016-11-30T09:41:19.573Z","22.00","34.00"
"2016-11-30T09:42:18.533Z","22.00","34.00"
"2016-11-30T09:43:19.381Z","22.00","34.00"
"2016-11-30T09:44:19.420Z","22.00","34.00"
"2016-11-30T09:45:19.383Z","22.00","34.00"
"2016-11-30T09:46:19.486Z","22.00","34.00"
"2016-11-30T09:47:19.397Z","22.00","34.00"
"2016-11-30T09:48:19.481Z","22.00","34.00"
"2016-11-30T09:49:19.423Z","22.00","34.00"
"2016-11-30T09:50:19.404Z","22.00","34.00"
"2016-11-30T09:51:19.411Z","22.00","34.00"
"2016-11-30T09:52:19.521Z","22.00","34.00"
"2016-11-30T09:53:19.429Z","22.00","34.00"
"2016-11-30T09:54:19.431Z","22.00","34.00"
"2016-11-30T09:55:19.445Z","22.00","34.00"
"2016-11-30T09:56:19.407Z","22.00","34.00"
"2016-11-30T09:57:19.458Z","22.00","34.00"
"2016-11-30T09:58:19.419Z","22.00","34.00"
"2016-11-30T09:59:19.413Z","22.00","34.00"
"2016-11-30T10:00:19.407Z","22.00","34.00"
"2016-11-30T10:01:19.423Z","22.00","34.00"
"2016-11-30T10:02:19.420Z","22.00","34.00"
"2016-11-30T10:03:19.413Z","22.00","34.00"
"2016-11-30T10:04:19.420Z","22.00","34.00"
"2016-11-30T10:05:19.419Z","22.00","34.00"
"2016-11-30T10:06:19.749Z","22.00","34.00"
"2016-11-30T10:07:28.502Z","22.00","34.00"
"2016-11-30T10:08:28.403Z","22.00","34.00"
"2016-11-30T10:09:28.454Z","22.00","34.00"
"2016-11-30T10:10:28.480Z","22.00","34.00"
"2016-11-30T10:11:28.728Z","22.00","34.00"
"2016-11-30T10:12:41.688Z","22.00","34.00"
"2016-11-30T10:13:42.129Z","22.00","34.00"
"2016-11-30T10:14:41.522Z","22.00","34.00"
"2016-11-30T10:15:41.527Z","22.00","34.00"
"2016-11-30T10:16:41.496Z","22.00","34.00"
"2016-11-30T10:17:41.520Z","22.00","34.00"
"2016-11-30T10:18:41.529Z","22.00","34.00"
"2016-11-30T10:19:41.620Z","22.00","34.00"
"2016-11-30T10:20:41.510Z","22.00","34.00"
"2016-11-30T10:21:41.732Z","22.00","33.00"
"2016-11-30T10:22:41.658Z","22.00","33.00"
"2016-11-30T10:23:41.664Z","22.00","33.00"
"2016-11-30T10:24:41.535Z","22.00","33.00"
"2016-11-30T10:25:41.655Z","22.00","33.00"
"2016-11-30T10:26:41.537Z","22.00","33.00"
"2016-11-30T10:27:41.526Z","22.00","33.00"
"2016-11-30T10:28:41.496Z","22.00","33.00"
"2016-11-30T10:29:41.513Z","22.00","33.00"
"2016-11-30T10:30:41.524Z","22.00","33.00"
"2016-11-30T10:31:41.569Z","22.00","33.00"
"2016-11-30T10:32:41.628Z","22.00","33.00"
"2016-11-30T10:33:41.540Z","22.00","33.00"
"2016-11-30T10:34:41.640Z","22.00","33.00"
"2016-11-30T10:35:41.532Z","22.00","33.00"
"2016-11-30T10:36:41.561Z","22.00","33.00"
"2016-11-30T10:37:41.598Z","22.00","33.00"
"2016-11-30T10:38:41.641Z","22.00","33.00"
"2016-11-30T10:39:41.544Z","22.00","33.00"
"2016-11-30T10:40:41.605Z","22.00","33.00"
"2016-11-30T10:41:41.691Z","22.00","33.00"
"2016-11-30T10:42:41.580Z","22.00","33.00"
"2016-11-30T10:43:41.811Z","22.00","33.00"
"2016-11-30T10:44:41.533Z","22.00","33.00"
"2016-11-30T10:45:41.688Z","22.00","33.00"
"2016-11-30T10:46:41.692Z","22.00","33.00"
"2016-11-30T10:47:41.533Z","22.00","33.00"
"2016-11-30T10:48:41.616Z","22.00","33.00"
"2016-11-30T10:49:41.589Z","22.00","33.00"
"2016-11-30T10:50:41.689Z","22.00","33.00"
"2016-11-30T10:51:41.625Z","22.00","33.00"
"2016-11-30T10:52:41.818Z","22.00","33.00"
"2016-11-30T10:54:03.776Z","22.00","33.00"
"2016-11-30T10:55:03.536Z","22.00","33.00"
"2016-11-30T10:56:03.834Z","22.00","33.00"
"2016-11-30T10:57:06.565Z","22.00","33.00"
"2016-11-30T10:58:03.539Z","22.00","33.00"
"2016-11-30T10:59:03.856Z","22.00","33.00"
"2016-11-30T11:00:03.653Z","22.00","33.00"
"2016-11-30T11:01:03.514Z","22.00","33.00"
"2016-11-30T11:02:03.534Z","22.00","33.00"
"2016-11-30T11:03:03.761Z","22.00","33.00"
"2016-11-30T11:04:03.571Z","22.00","33.00"
"2016-11-30T11:05:03.632Z","22.00","33.00"
"2016-11-30T11:06:03.574Z","22.00","33.00"
"2016-11-30T11:07:03.533Z","22.00","33.00"
"2016-11-30T11:08:03.833Z","22.00","33.00"
"2016-11-30T11:09:06.723Z","22.00","33.00"
"2016-11-30T11:10:03.776Z","22.00","33.00"
"2016-11-30T11:11:06.657Z","22.00","33.00"
"2016-11-30T11:12:04.050Z","22.00","33.00"
"2016-11-30T11:13:03.558Z","22.00","33.00"
"2016-11-30T11:14:03.755Z","22.00","33.00"
"2016-11-30T11:15:03.528Z","22.00","33.00"
"2016-11-30T11:16:03.548Z","22.00","33.00"
"2016-11-30T11:17:03.722Z","22.00","33.00"
"2016-11-30T11:18:03.546Z","22.00","33.00"
"2016-11-30T11:19:03.794Z","22.00","33.00"
"2016-11-30T11:20:03.800Z","22.00","33.00"
"2016-11-30T11:21:03.698Z","22.00","33.00"
"2016-11-30T11:22:03.677Z","22.00","33.00"
"2016-11-30T11:23:03.875Z","22.00","33.00"
"2016-11-30T11:24:03.550Z","22.00","33.00"
"2016-11-30T11:25:03.687Z","22.00","33.00"
"2016-11-30T11:26:03.876Z","22.00","33.00"
"2016-11-30T11:27:03.528Z","22.00","33.00"
"2016-11-30T11:28:03.552Z","22.00","33.00"
"2016-11-30T11:29:03.677Z","22.00","33.00"
"2016-11-30T11:30:03.684Z","22.00","33.00"
"2016-11-30T11:31:03.696Z","22.00","33.00"
"2016-11-30T11:32:03.777Z","22.00","33.00"
"2016-11-30T11:33:03.537Z","22.00","33.00"
"2016-11-30T11:34:03.632Z","22.00","33.00"
"2016-11-30T11:35:03.855Z","22.00","33.00"
"2016-11-30T11:36:03.538Z","22.00","33.00"
"2016-11-30T11:37:04.124Z","22.00","33.00"
"2016-11-30T11:38:03.545Z","22.00","33.00"
"2016-11-30T11:39:03.824Z","22.00","33.00"
"2016-11-30T11:40:03.819Z","22.00","33.00"
"2016-11-30T11:41:06.941Z","22.00","33.00"
"2016-11-30T11:42:07.049Z","22.00","33.00"
"2016-11-30T11:43:07.232Z","22.00","33.00"
"2016-11-30T11:44:03.914Z","22.00","33.00"
"2016-11-30T11:45:03.972Z","22.00","33.00"
"2016-11-30T11:46:03.724Z","22.00","33.00"
"2016-11-30T11:47:04.115Z","22.00","33.00"
"2016-11-30T11:48:04.131Z","22.00","33.00"
"2016-11-30T11:49:03.695Z","22.00","33.00"
"2016-11-30T11:50:03.613Z","22.00","32.00"
"2016-11-30T11:51:03.666Z","22.00","32.00"
"2016-11-30T11:52:03.660Z","22.00","32.00"
"2016-11-30T11:53:03.717Z","22.00","32.00"
"2016-11-30T11:54:03.617Z","22.00","32.00"
"2016-11-30T11:55:03.960Z","22.00","32.00"
"2016-11-30T11:56:03.869Z","22.00","32.00"
"2016-11-30T11:57:03.610Z","22.00","32.00"
"2016-11-30T11:58:04.010Z","22.00","32.00"
"2016-11-30T11:59:03.678Z","22.00","32.00"
"2016-11-30T12:00:03.662Z","22.00","32.00"
"2016-11-30T12:01:03.661Z","22.00","32.00"
"2016-11-30T12:02:03.735Z","22.00","32.00"
"2016-11-30T12:03:03.629Z","22.00","32.00"
"2016-11-30T12:04:03.765Z","22.00","32.00"
"2016-11-30T12:05:12.606Z","22.00","32.00"
"2016-11-30T12:06:12.886Z","22.00","32.00"
"2016-11-30T12:07:12.712Z","22.00","32.00"
"2016-11-30T12:08:12.871Z","22.00","32.00"
"2016-11-30T12:09:12.694Z","22.00","32.00"
"2016-11-30T12:10:12.772Z","22.00","32.00"
"2016-11-30T12:11:12.998Z","22.00","32.00"
"2016-11-30T12:12:12.876Z","22.00","32.00"
"2016-11-30T12:13:12.613Z","22.00","32.00"
"2016-11-30T12:14:13.097Z","22.00","32.00"
"2016-11-30T12:15:12.586Z","22.00","32.00"
"2016-11-30T12:16:12.629Z","22.00","32.00"
"2016-11-30T12:17:12.681Z","22.00","32.00"
"2016-11-30T12:18:12.593Z","22.00","32.00"
"2016-11-30T12:19:12.970Z","22.00","32.00"
"2016-11-30T12:20:12.621Z","22.00","32.00"
"2016-11-30T12:21:12.652Z","22.00","32.00"
"2016-11-30T12:22:13.370Z","22.00","32.00"
"2016-11-30T12:23:12.638Z","22.00","32.00"
"2016-11-30T12:24:12.646Z","22.00","32.00"
"2016-11-30T12:25:12.631Z","22.00","32.00"
"2016-11-30T12:26:12.979Z","22.00","32.00"
"2016-11-30T12:27:12.609Z","22.00","32.00"
"2016-11-30T12:28:13.162Z","22.00","32.00"
"2016-11-30T12:29:12.884Z","22.00","32.00"
"2016-11-30T12:30:13.463Z","22.00","32.00"
"2016-11-30T12:31:13.074Z","22.00","32.00"
"2016-11-30T12:32:57.450Z","22.00","32.00"
"2016-11-30T12:34:09.965Z","22.00","32.00"
"2016-11-30T12:35:12.634Z","22.00","32.00"
"2016-11-30T12:36:12.774Z","22.00","32.00"
"2016-11-30T12:37:13.249Z","22.00","32.00"
"2016-11-30T12:38:12.809Z","22.00","32.00"
"2016-11-30T12:39:41.769Z","22.00","32.00"
"2016-11-30T12:40:41.060Z","22.00","32.00"
"2016-11-30T12:41:41.664Z","22.00","32.00"
"2016-11-30T12:42:41.810Z","22.00","32.00"
"2016-11-30T12:43:41.655Z","22.00","32.00"
"2016-11-30T12:44:41.812Z","22.00","32.00"
"2016-11-30T12:45:41.664Z","22.00","32.00"
"2016-11-30T12:46:41.721Z","22.00","32.00"
"2016-11-30T12:47:41.977Z","22.00","32.00"
"2016-11-30T12:48:41.867Z","22.00","32.00"
"2016-11-30T12:49:41.671Z","22.00","32.00"
"2016-11-30T12:50:41.763Z","22.00","32.00"
"2016-11-30T12:51:41.692Z","22.00","32.00"
"2016-11-30T12:52:41.664Z","22.00","32.00"
"2016-11-30T12:53:41.682Z","22.00","32.00"
"2016-11-30T12:54:41.799Z","22.00","32.00"
"2016-11-30T12:55:43.373Z","22.00","32.00"
"2016-11-30T12:56:41.818Z","22.00","32.00"
"2016-11-30T12:57:41.808Z","22.00","32.00"
"2016-11-30T12:58:41.761Z","22.00","32.00"
"2016-11-30T12:59:41.863Z","22.00","32.00"
"2016-11-30T13:00:41.672Z","22.00","32.00"
"2016-11-30T13:01:41.693Z","22.00","32.00"
"2016-11-30T13:02:41.697Z","22.00","32.00"
"2016-11-30T13:03:41.714Z","22.00","32.00"
"2016-11-30T13:04:41.870Z","22.00","32.00"
"2016-11-30T13:05:41.918Z","22.00","32.00"
"2016-11-30T13:06:41.873Z","22.00","32.00"
"2016-11-30T13:07:41.927Z","22.00","32.00"
"2016-11-30T13:08:41.860Z","22.00","32.00"
"2016-11-30T13:09:43.258Z","22.00","32.00"
"2016-11-30T13:10:41.882Z","22.00","32.00"
"2016-11-30T13:11:41.866Z","22.00","32.00"
"2016-11-30T13:12:41.705Z","22.00","32.00"
"2016-11-30T13:13:41.720Z","22.00","32.00"
"2016-11-30T13:14:41.748Z","22.00","32.00"
"2016-11-30T13:16:12.793Z","22.00","32.00"
"2016-11-30T13:17:12.919Z","22.00","32.00"
"2016-11-30T13:18:13.103Z","22.00","32.00"
"2016-11-30T13:19:12.889Z","22.00","32.00"
"2016-11-30T13:20:12.964Z","22.00","32.00"
"2016-11-30T13:21:12.691Z","22.00","32.00"
"2016-11-30T13:22:12.870Z","22.00","32.00"
"2016-11-30T13:23:13.001Z","22.00","32.00"
"2016-11-30T13:24:12.775Z","22.00","32.00"
"2016-11-30T13:25:25.968Z","22.00","32.00"
"2016-11-30T13:26:25.941Z","22.00","32.00"
"2016-11-30T13:27:22.748Z","22.00","32.00"
"2016-11-30T13:28:19.861Z","22.00","32.00"
"2016-11-30T13:29:19.864Z","22.00","32.00"
"2016-11-30T13:30:19.760Z","22.00","32.00"
"2016-11-30T13:31:19.728Z","22.00","32.00"
"2016-11-30T13:32:19.732Z","22.00","32.00"
"2016-11-30T13:33:19.863Z","22.00","32.00"
"2016-11-30T13:34:19.742Z","22.00","32.00"
"2016-11-30T13:35:19.732Z","22.00","32.00"
"2016-11-30T13:37:50.869Z","22.00","32.00"
"2016-11-30T13:38:51.016Z","22.00","32.00"
"2016-11-30T13:39:50.915Z","22.00","32.00"
"2016-11-30T13:40:47.803Z","22.00","32.00"
"2016-11-30T13:41:44.877Z","22.00","32.00"
"2016-11-30T13:42:41.744Z","22.00","32.00"
"2016-11-30T13:43:41.751Z","22.00","32.00"
"2016-11-30T13:44:50.761Z","22.00","32.00"
"2016-11-30T13:45:51.191Z","22.00","32.00"
"2016-11-30T13:46:48.068Z","22.00","32.00"
"2016-11-30T13:47:47.235Z","22.00","32.00"
"2016-11-30T13:48:44.167Z","22.00","32.00"
"2016-11-30T13:49:41.905Z","22.00","32.00"
"2016-11-30T13:50:41.791Z","22.00","32.00"
"2016-11-30T13:51:41.790Z","22.00","32.00"
"2016-11-30T13:52:50.784Z","22.00","32.00"
"2016-11-30T13:53:47.564Z","22.00","32.00"
"2016-11-30T13:54:44.591Z","22.00","32.00"
"2016-11-30T13:55:43.672Z","22.00","32.00"
"2016-11-30T13:56:42.586Z","22.00","32.00"
"2016-11-30T13:57:41.791Z","22.00","32.00"
"2016-11-30T13:58:41.794Z","22.00","32.00"
"2016-11-30T13:59:43.256Z","22.00","32.00"
"2016-11-30T14:00:41.810Z","22.00","32.00"
"2016-11-30T14:01:41.813Z","22.00","31.00"
"2016-11-30T14:02:44.863Z","22.00","32.00"
"2016-11-30T14:03:44.791Z","22.00","31.00"
"2016-11-30T14:05:34.937Z","22.00","31.00"
"2016-11-30T14:06:35.264Z","22.00","31.00"
"2016-11-30T14:07:35.132Z","22.00","31.00"
"2016-11-30T14:08:35.166Z","22.00","31.00"
"2016-11-30T14:09:34.909Z","22.00","31.00"
"2016-11-30T14:10:35.561Z","22.00","31.00"
"2016-11-30T14:11:35.254Z","22.00","31.00"
"2016-11-30T14:12:34.817Z","22.00","31.00"
"2016-11-30T14:13:41.967Z","22.00","31.00"
"2016-11-30T14:14:41.703Z","22.00","31.00"
"2016-11-30T14:15:41.877Z","22.00","31.00"
"2016-11-30T14:16:41.868Z","22.00","31.00"
"2016-11-30T14:17:41.874Z","22.00","31.00"
"2016-11-30T14:18:41.874Z","22.00","31.00"
"2016-11-30T14:19:41.873Z","22.00","31.00"
"2016-11-30T14:20:41.853Z","22.00","31.00"
"2016-11-30T14:21:41.855Z","22.00","31.00"
"2016-11-30T14:22:42.116Z","22.00","31.00"
"2016-11-30T14:23:42.296Z","22.00","31.00"
"2016-11-30T14:24:41.884Z","22.00","31.00"
"2016-11-30T14:25:41.861Z","22.00","31.00"
"2016-11-30T14:26:41.891Z","22.00","31.00"
"2016-11-30T14:27:42.136Z","22.00","31.00"
"2016-11-30T14:28:41.865Z","22.00","31.00"
"2016-11-30T14:29:41.960Z","22.00","31.00"
"2016-11-30T14:30:41.867Z","22.00","31.00"
"2016-11-30T14:31:42.012Z","22.00","31.00"
"2016-11-30T14:32:41.932Z","22.00","31.00"
"2016-11-30T14:33:42.111Z","22.00","31.00"
"2016-11-30T14:34:41.897Z","22.00","31.00"
"2016-11-30T14:35:41.915Z","22.00","31.00"
"2016-11-30T14:36:41.945Z","22.00","31.00"
"2016-11-30T14:37:41.898Z","22.00","31.00"
"2016-11-30T14:38:41.889Z","22.00","31.00"
"2016-11-30T14:39:41.900Z","22.00","31.00"
"2016-11-30T14:40:41.912Z","22.00","31.00"
"2016-11-30T14:41:41.910Z","22.00","31.00"
"2016-11-30T14:42:41.984Z","22.00","31.00"
"2016-11-30T14:43:41.918Z","22.00","31.00"
"2016-11-30T14:44:41.915Z","22.00","31.00"
"2016-11-30T14:45:41.929Z","22.00","31.00"
"2016-11-30T14:46:41.924Z","22.00","31.00"
"2016-11-30T14:47:41.970Z","22.00","31.00"
"2016-11-30T14:48:41.942Z","22.00","31.00"
"2016-11-30T14:49:41.945Z","22.00","31.00"
"2016-11-30T14:50:41.969Z","22.00","31.00"
"2016-11-30T14:51:41.925Z","22.00","31.00"
"2016-11-30T14:52:41.946Z","22.00","31.00"
"2016-11-30T14:53:42.064Z","22.00","31.00"
"2016-11-30T14:54:41.923Z","22.00","31.00"
"2016-11-30T14:55:42.304Z","22.00","31.00"
"2016-11-30T14:56:42.187Z","22.00","31.00"
"2016-11-30T14:58:35.149Z","22.00","31.00"
"2016-11-30T14:59:35.213Z","22.00","31.00"
"2016-11-30T15:00:34.979Z","22.00","31.00"
"2016-11-30T15:01:35.267Z","22.00","31.00"
"2016-11-30T15:02:34.967Z","22.00","31.00"
"2016-11-30T15:03:35.116Z","22.00","31.00"
"2016-11-30T15:04:35.265Z","22.00","31.00"
"2016-11-30T15:05:35.105Z","22.00","31.00"
"2016-11-30T15:07:19.544Z","22.00","31.00"
"2016-11-30T15:08:19.036Z","22.00","31.00"
"2016-11-30T15:09:19.958Z","22.00","31.00"
"2016-11-30T15:10:19.956Z","22.00","31.00"
"2016-11-30T15:11:19.963Z","22.00","31.00"
"2016-11-30T15:12:19.950Z","22.00","31.00"
"2016-11-30T15:13:19.952Z","22.00","31.00"
"2016-11-30T15:14:19.967Z","22.00","31.00"
"2016-11-30T15:15:19.960Z","22.00","31.00"
"2016-11-30T15:16:19.982Z","22.00","31.00"
"2016-11-30T15:17:19.952Z","22.00","31.00"
"2016-11-30T15:18:20.004Z","22.00","31.00"
"2016-11-30T15:19:19.970Z","22.00","31.00"
"2016-11-30T15:20:19.971Z","22.00","31.00"
"2016-11-30T15:21:19.979Z","22.00","31.00"
"2016-11-30T15:22:19.964Z","22.00","31.00"
"2016-11-30T15:23:20.198Z","22.00","31.00"
"2016-11-30T15:24:31.768Z","22.00","31.00"
"2016-11-30T15:25:31.880Z","22.00","31.00"
"2016-11-30T15:26:31.478Z","22.00","31.00"
"2016-11-30T15:27:29.172Z","22.00","31.00"
"2016-11-30T15:28:28.954Z","22.00","31.00"
"2016-11-30T15:29:28.959Z","22.00","31.00"
"2016-11-30T15:30:29.161Z","22.00","31.00"
"2016-11-30T15:31:42.321Z","22.00","31.00"
"2016-11-30T15:32:42.056Z","22.00","31.00"
"2016-11-30T15:33:42.063Z","22.00","31.00"
"2016-11-30T15:34:42.033Z","22.00","31.00"
"2016-11-30T15:35:42.168Z","22.00","31.00"
"2016-11-30T15:36:42.167Z","22.00","31.00"
"2016-11-30T15:37:42.073Z","22.00","31.00"
"2016-11-30T15:38:42.061Z","22.00","31.00"
"2016-11-30T15:39:42.003Z","22.00","31.00"
"2016-11-30T15:40:42.004Z","22.00","31.00"
"2016-11-30T15:41:42.013Z","22.00","31.00"
"2016-11-30T15:42:41.998Z","22.00","31.00"
"2016-11-30T15:43:41.993Z","22.00","31.00"
"2016-11-30T15:44:42.165Z","22.00","31.00"
"2016-11-30T15:45:41.999Z","22.00","31.00"
"2016-11-30T15:46:42.086Z","22.00","31.00"
"2016-11-30T15:47:42.008Z","22.00","31.00"
"2016-11-30T15:48:42.123Z","22.00","31.00"
"2016-11-30T15:49:41.999Z","22.00","31.00"
"2016-11-30T15:50:42.007Z","22.00","31.00"
"2016-11-30T15:51:42.039Z","22.00","31.00"
"2016-11-30T15:52:42.011Z","22.00","31.00"
"2016-11-30T15:53:42.023Z","22.00","31.00"
"2016-11-30T15:54:42.045Z","22.00","31.00"
"2016-11-30T15:55:42.032Z","22.00","31.00"
"2016-11-30T15:56:42.013Z","22.00","31.00"
"2016-11-30T15:57:42.066Z","22.00","31.00"
"2016-11-30T15:58:42.062Z","22.00","31.00"
"2016-11-30T15:59:42.004Z","22.00","31.00"
"2016-11-30T16:00:42.027Z","22.00","31.00"
"2016-11-30T16:01:42.284Z","22.00","31.00"
"2016-11-30T16:02:42.162Z","22.00","31.00"
"2016-11-30T16:04:51.038Z","22.00","31.00"
"2016-11-30T16:05:48.161Z","22.00","31.00"
"2016-11-30T16:06:45.031Z","22.00","31.00"
"2016-11-30T16:07:42.276Z","22.00","31.00"
"2016-11-30T16:08:42.050Z","22.00","31.00"
"2016-11-30T16:09:42.039Z","22.00","31.00"
"2016-11-30T16:10:42.051Z","22.00","31.00"
"2016-11-30T16:11:42.417Z","22.00","31.00"
"2016-11-30T16:12:42.056Z","22.00","31.00"
"2016-11-30T16:13:42.330Z","22.00","31.00"
"2016-11-30T16:14:42.243Z","22.00","31.00"
"2016-11-30T16:15:42.043Z","22.00","31.00"
"2016-11-30T16:16:42.215Z","22.00","31.00"
"2016-11-30T16:17:42.057Z","22.00","31.00"
"2016-11-30T16:18:42.210Z","22.00","31.00"
"2016-11-30T16:19:42.055Z","22.00","31.00"
"2016-11-30T16:20:42.071Z","22.00","31.00"
"2016-11-30T16:21:42.058Z","22.00","31.00"
"2016-11-30T16:22:42.069Z","22.00","31.00"
"2016-11-30T16:23:42.066Z","22.00","31.00"
"2016-11-30T16:24:42.169Z","22.00","31.00"
"2016-11-30T16:25:42.049Z","22.00","31.00"
"2016-11-30T16:26:42.061Z","22.00","31.00"
"2016-11-30T16:27:42.052Z","22.00","31.00"
"2016-11-30T16:28:42.059Z","22.00","31.00"
"2016-11-30T16:29:42.065Z","22.00","31.00"
"2016-11-30T16:30:42.066Z","22.00","31.00"
"2016-11-30T16:31:42.211Z","22.00","31.00"
"2016-11-30T16:32:42.315Z","22.00","31.00"
"2016-11-30T16:33:42.085Z","22.00","31.00"
"2016-11-30T16:34:42.397Z","22.00","31.00"
"2016-11-30T16:35:42.363Z","22.00","31.00"
"2016-11-30T16:37:39.659Z","22.00","31.00"
"2016-11-30T16:38:42.079Z","22.00","31.00"
"2016-11-30T16:39:42.084Z","22.00","31.00"
"2016-11-30T16:40:42.100Z","22.00","31.00"
"2016-11-30T16:41:42.329Z","22.00","31.00"
"2016-11-30T16:42:42.162Z","22.00","31.00"
"2016-11-30T16:43:42.169Z","22.00","31.00"
"2016-11-30T16:44:42.344Z","22.00","31.00"
"2016-11-30T16:45:42.067Z","22.00","31.00"
"2016-11-30T16:46:42.172Z","22.00","31.00"
"2016-11-30T16:47:42.080Z","22.00","31.00"
"2016-11-30T16:48:42.314Z","22.00","31.00"
"2016-11-30T16:49:42.950Z","22.00","31.00"
"2016-11-30T16:50:42.095Z","22.00","31.00"
"2016-11-30T16:51:42.109Z","22.00","31.00"
"2016-11-30T16:52:42.108Z","22.00","31.00"
"2016-11-30T16:53:42.163Z","22.00","31.00"
"2016-11-30T16:54:42.224Z","22.00","31.00"
"2016-11-30T16:55:42.220Z","22.00","31.00"
"2016-11-30T16:56:42.532Z","22.00","31.00"
"2016-11-30T16:57:42.110Z","22.00","31.00"
"2016-11-30T16:58:42.151Z","22.00","31.00"
"2016-11-30T16:59:42.105Z","22.00","31.00"
"2016-11-30T17:00:42.167Z","22.00","31.00"
"2016-11-30T17:01:42.169Z","22.00","31.00"
"2016-11-30T17:02:42.180Z","22.00","31.00"
"2016-11-30T17:03:42.103Z","22.00","31.00"
"2016-11-30T17:04:42.103Z","22.00","31.00"
"2016-11-30T17:05:42.129Z","22.00","30.00"
"2016-11-30T17:06:42.106Z","22.00","30.00"
"2016-11-30T17:07:42.111Z","22.00","30.00"
"2016-11-30T17:08:42.106Z","22.00","30.00"
"2016-11-30T17:09:42.099Z","22.00","30.00"
"2016-11-30T17:10:42.108Z","22.00","30.00"
"2016-11-30T17:11:42.338Z","22.00","30.00"
"2016-11-30T17:12:42.118Z","22.00","30.00"
"2016-11-30T17:13:42.335Z","22.00","30.00"
"2016-11-30T17:14:42.229Z","22.00","30.00"
"2016-11-30T17:15:42.207Z","22.00","30.00"
"2016-11-30T17:16:42.413Z","22.00","30.00"
"2016-11-30T17:17:42.106Z","22.00","30.00"
"2016-11-30T17:18:42.160Z","22.00","30.00"
"2016-11-30T17:19:42.123Z","22.00","30.00"
"2016-11-30T17:20:42.961Z","22.00","30.00"
"2016-11-30T17:21:45.362Z","22.00","30.00"
"2016-11-30T17:22:45.124Z","22.00","30.00"
"2016-11-30T17:23:42.131Z","22.00","30.00"
"2016-11-30T17:24:42.161Z","22.00","30.00"
"2016-11-30T17:25:42.227Z","22.00","30.00"
"2016-11-30T17:26:42.161Z","22.00","30.00"
"2016-11-30T17:27:42.162Z","22.00","30.00"
"2016-11-30T17:28:42.226Z","22.00","30.00"
"2016-11-30T17:29:42.362Z","22.00","30.00"
"2016-11-30T17:30:42.164Z","22.00","30.00"
"2016-11-30T17:31:42.422Z","22.00","30.00"
"2016-11-30T17:32:42.148Z","22.00","30.00"
"2016-11-30T17:33:42.209Z","22.00","30.00"
"2016-11-30T17:34:42.159Z","22.00","30.00"
"2016-11-30T17:35:42.997Z","22.00","30.00"
"2016-11-30T17:36:42.389Z","22.00","30.00"
"2016-11-30T17:37:42.131Z","22.00","30.00"
"2016-11-30T17:38:42.159Z","22.00","30.00"
"2016-11-30T17:39:42.160Z","22.00","30.00"
"2016-11-30T17:40:42.166Z","22.00","30.00"
"2016-11-30T17:41:42.136Z","22.00","30.00"
"2016-11-30T17:42:42.166Z","22.00","30.00"
"2016-11-30T17:43:42.335Z","22.00","30.00"
"2016-11-30T17:44:42.132Z","22.00","30.00"
"2016-11-30T17:45:42.442Z","22.00","30.00"
"2016-11-30T17:46:42.148Z","22.00","30.00"
"2016-11-30T17:47:42.169Z","22.00","30.00"
"2016-11-30T17:48:42.150Z","22.00","30.00"
"2016-11-30T17:49:42.160Z","22.00","30.00"
"2016-11-30T17:50:42.329Z","22.00","30.00"
"2016-11-30T17:51:42.169Z","22.00","30.00"
"2016-11-30T17:52:42.180Z","22.00","30.00"
"2016-11-30T17:55:04.323Z","22.00","30.00"
"2016-11-30T17:56:01.173Z","22.00","30.00"
"2016-11-30T17:57:04.171Z","22.00","30.00"
"2016-11-30T17:58:03.343Z","22.00","30.00"
"2016-11-30T17:59:04.158Z","22.00","30.00"
"2016-11-30T18:00:04.192Z","22.00","30.00"
"2016-11-30T18:01:04.174Z","22.00","30.00"
"2016-11-30T18:02:07.370Z","22.00","30.00"
"2016-11-30T18:03:04.671Z","22.00","30.00"
"2016-11-30T18:04:04.239Z","22.00","30.00"
"2016-11-30T18:05:57.828Z","22.00","30.00"
"2016-11-30T18:06:57.763Z","22.00","30.00"
"2016-11-30T18:07:57.608Z","22.00","30.00"
"2016-11-30T18:08:57.238Z","22.00","30.00"
"2016-11-30T18:09:57.377Z","22.00","30.00"
"2016-11-30T18:10:57.468Z","22.00","30.00"
"2016-11-30T18:11:57.487Z","22.00","30.00"
"2016-11-30T18:12:57.778Z","22.00","30.00"
"2016-11-30T18:13:57.169Z","22.00","30.00"
"2016-11-30T18:14:57.430Z","22.00","30.00"
"2016-11-30T18:15:57.462Z","22.00","30.00"
"2016-11-30T18:16:57.298Z","22.00","30.00"
"2016-11-30T18:17:57.485Z","22.00","30.00"
"2016-11-30T18:18:57.272Z","22.00","30.00"
"2016-11-30T18:19:57.722Z","22.00","30.00"
"2016-11-30T18:20:57.686Z","22.00","30.00"
"2016-11-30T18:21:57.345Z","22.00","30.00"
"2016-11-30T18:22:57.971Z","22.00","30.00"
"2016-11-30T18:24:04.405Z","22.00","30.00"
"2016-11-30T18:25:03.662Z","22.00","30.00"
"2016-11-30T18:26:04.416Z","22.00","30.00"
"2016-11-30T18:27:04.522Z","22.00","30.00"
"2016-11-30T18:28:04.432Z","22.00","30.00"
"2016-11-30T18:29:04.207Z","22.00","30.00"
"2016-11-30T18:30:04.375Z","22.00","30.00"
"2016-11-30T18:31:04.512Z","22.00","30.00"
"2016-11-30T18:32:57.571Z","22.00","30.00"
"2016-11-30T18:34:26.692Z","22.00","30.00"
"2016-11-30T18:35:26.064Z","22.00","30.00"
"2016-11-30T18:36:26.306Z","22.00","30.00"
"2016-11-30T18:37:26.415Z","22.00","30.00"
"2016-11-30T18:38:23.230Z","22.00","30.00"
"2016-11-30T18:39:20.391Z","22.00","30.00"
"2016-11-30T18:40:20.204Z","22.00","30.00"
"2016-11-30T18:41:20.210Z","22.00","30.00"
"2016-11-30T18:42:20.232Z","22.00","30.00"
"2016-11-30T18:43:20.210Z","22.00","30.00"
"2016-11-30T18:44:20.235Z","22.00","30.00"
"2016-11-30T18:45:20.213Z","22.00","30.00"
"2016-11-30T18:46:20.263Z","22.00","30.00"
"2016-11-30T18:47:20.220Z","22.00","30.00"
"2016-11-30T18:48:20.226Z","22.00","30.00"
"2016-11-30T18:49:20.232Z","22.00","30.00"
"2016-11-30T18:50:20.239Z","22.00","30.00"
"2016-11-30T18:51:20.247Z","22.00","30.00"
"2016-11-30T18:52:20.275Z","22.00","30.00"
"2016-11-30T18:53:20.224Z","22.00","30.00"
"2016-11-30T18:54:20.228Z","22.00","30.00"
"2016-11-30T18:55:20.251Z","22.00","30.00"
"2016-11-30T18:56:20.265Z","22.00","30.00"
"2016-11-30T18:57:20.237Z","22.00","30.00"
"2016-11-30T18:58:20.272Z","22.00","30.00"
"2016-11-30T18:59:20.312Z","22.00","30.00"
"2016-11-30T19:00:20.242Z","22.00","30.00"
"2016-11-30T19:01:20.262Z","22.00","30.00"
"2016-11-30T19:02:20.277Z","22.00","30.00"
"2016-11-30T19:03:20.274Z","22.00","30.00"
"2016-11-30T19:04:20.401Z","22.00","30.00"
"2016-11-30T19:05:20.340Z","22.00","30.00"
"2016-11-30T19:06:20.320Z","22.00","30.00"
"2016-11-30T19:07:20.383Z","22.00","30.00"
"2016-11-30T19:08:20.317Z","22.00","30.00"
"2016-11-30T19:09:20.320Z","22.00","30.00"
"2016-11-30T19:10:20.388Z","22.00","30.00"
"2016-11-30T19:11:21.027Z","22.00","30.00"
"2016-11-30T19:12:21.026Z","22.00","30.00"
"2016-11-30T19:13:20.370Z","22.00","30.00"
"2016-11-30T19:14:20.381Z","22.00","30.00"
"2016-11-30T19:15:21.029Z","22.00","30.00"
"2016-11-30T19:16:21.081Z","22.00","30.00"
"2016-11-30T19:17:20.385Z","22.00","30.00"
"2016-11-30T19:18:20.407Z","22.00","30.00"
"2016-11-30T19:19:20.406Z","22.00","30.00"
"2016-11-30T19:20:20.417Z","22.00","30.00"
"2016-11-30T19:21:20.453Z","22.00","30.00"
"2016-11-30T19:22:20.500Z","22.00","30.00"
"2016-11-30T19:23:20.457Z","22.00","30.00"
"2016-11-30T19:24:20.490Z","22.00","30.00"
"2016-11-30T19:25:20.502Z","22.00","30.00"
"2016-11-30T19:26:20.491Z","22.00","30.00"
"2016-11-30T19:27:20.511Z","22.00","30.00"
"2016-11-30T19:28:20.504Z","22.00","30.00"
"2016-11-30T19:29:20.531Z","22.00","30.00"
"2016-11-30T19:30:20.616Z","22.00","30.00"
"2016-11-30T19:31:20.555Z","22.00","30.00"
"2016-11-30T19:32:20.550Z","22.00","30.00"
"2016-11-30T19:33:20.561Z","22.00","30.00"
"2016-11-30T19:34:20.637Z","22.00","30.00"
"2016-11-30T19:35:20.613Z","22.00","30.00"
"2016-11-30T19:36:20.632Z","22.00","30.00"
"2016-11-30T19:37:20.618Z","22.00","30.00"
"2016-11-30T19:38:20.618Z","22.00","30.00"
"2016-11-30T19:39:20.631Z","22.00","30.00"
"2016-11-30T19:40:20.743Z","22.00","30.00"
"2016-11-30T19:41:20.608Z","22.00","30.00"
"2016-11-30T19:42:20.878Z","22.00","30.00"
"2016-11-30T19:43:32.570Z","22.00","30.00"
"2016-11-30T19:44:29.992Z","22.00","30.00"
"2016-11-30T19:45:29.894Z","22.00","30.00"
"2016-11-30T19:46:29.720Z","22.00","30.00"
"2016-11-30T19:47:29.696Z","22.00","30.00"
"2016-11-30T19:48:29.704Z","22.00","30.00"
"2016-11-30T19:49:29.689Z","22.00","30.00"
"2016-11-30T19:50:29.725Z","22.00","30.00"
"2016-11-30T19:51:29.774Z","22.00","30.00"
"2016-11-30T19:52:29.772Z","22.00","30.00"
"2016-11-30T19:53:29.749Z","22.00","30.00"
"2016-11-30T19:54:30.090Z","22.00","30.00"
"2016-11-30T19:55:29.790Z","22.00","30.00"
"2016-11-30T19:56:30.085Z","22.00","30.00"
"2016-11-30T19:57:29.812Z","22.00","30.00"
"2016-11-30T19:58:29.804Z","22.00","30.00"
"2016-11-30T19:59:29.826Z","22.00","30.00"
"2016-11-30T20:00:29.885Z","22.00","30.00"
"2016-11-30T20:01:29.822Z","22.00","30.00"
"2016-11-30T20:02:29.838Z","22.00","30.00"
"2016-11-30T20:03:29.859Z","22.00","30.00"
"2016-11-30T20:04:29.814Z","22.00","30.00"
"2016-11-30T20:05:29.844Z","22.00","30.00"
"2016-11-30T20:06:29.834Z","22.00","30.00"
"2016-11-30T20:07:29.898Z","22.00","30.00"
"2016-11-30T20:08:29.888Z","22.00","30.00"
"2016-11-30T20:09:29.907Z","22.00","30.00"
"2016-11-30T20:10:29.859Z","22.00","30.00"
"2016-11-30T20:11:29.921Z","22.00","30.00"
"2016-11-30T20:12:30.078Z","22.00","30.00"
"2016-11-30T20:13:29.918Z","22.00","30.00"
"2016-11-30T20:14:29.944Z","22.00","30.00"
"2016-11-30T20:15:31.944Z","22.00","30.00"
"2016-11-30T20:16:31.433Z","22.00","30.00"
"2016-11-30T20:17:30.985Z","22.00","30.00"
"2016-11-30T20:18:29.962Z","22.00","30.00"
"2016-11-30T20:19:30.265Z","22.00","30.00"
"2016-11-30T20:20:29.971Z","22.00","30.00"
"2016-11-30T20:21:29.939Z","22.00","30.00"
"2016-11-30T20:22:29.929Z","22.00","30.00"
"2016-11-30T20:23:29.954Z","22.00","30.00"
"2016-11-30T20:24:30.152Z","22.00","30.00"
"2016-11-30T20:25:30.153Z","22.00","30.00"
"2016-11-30T20:26:30.156Z","22.00","30.00"
"2016-11-30T20:27:29.916Z","22.00","30.00"
"2016-11-30T20:28:29.947Z","22.00","30.00"
"2016-11-30T20:29:31.854Z","22.00","30.00"
"2016-11-30T20:30:30.058Z","22.00","30.00"
"2016-11-30T20:31:30.086Z","22.00","30.00"
"2016-11-30T20:32:30.156Z","22.00","30.00"
"2016-11-30T20:33:29.944Z","22.00","30.00"
"2016-11-30T20:34:29.965Z","22.00","30.00"
"2016-11-30T20:35:29.972Z","22.00","30.00"
"2016-11-30T20:36:30.067Z","22.00","30.00"
"2016-11-30T20:37:29.972Z","22.00","30.00"
"2016-11-30T20:38:30.051Z","22.00","30.00"
"2016-11-30T20:39:29.973Z","22.00","30.00"
"2016-11-30T20:40:29.948Z","22.00","31.00"
"2016-11-30T20:41:33.392Z","22.00","31.00"
"2016-11-30T20:42:32.975Z","22.00","31.00"
"2016-11-30T20:43:30.018Z","22.00","31.00"
"2016-11-30T20:44:30.018Z","22.00","31.00"
"2016-11-30T20:45:29.987Z","22.00","31.00"
"2016-11-30T20:46:30.038Z","22.00","31.00"
"2016-11-30T20:47:29.999Z","22.00","31.00"
"2016-11-30T20:48:31.947Z","22.00","31.00"
"2016-11-30T20:49:31.428Z","22.00","31.00"
"2016-11-30T20:50:30.051Z","22.00","32.00"
"2016-11-30T20:51:30.054Z","22.00","33.00"
"2016-11-30T20:52:30.123Z","22.00","34.00"
"2016-11-30T20:53:30.062Z","22.00","34.00"
"2016-11-30T20:54:30.052Z","22.00","35.00"
"2016-11-30T20:55:30.087Z","22.00","36.00"
"2016-11-30T20:56:30.094Z","22.00","35.00"
"2016-11-30T20:57:30.115Z","22.00","34.00"
"2016-11-30T20:58:30.045Z","22.00","34.00"
"2016-11-30T20:59:30.083Z","22.00","33.00"
"2016-11-30T21:00:30.071Z","22.00","33.00"
"2016-11-30T21:01:30.168Z","22.00","34.00"
"2016-11-30T21:02:30.097Z","22.00","33.00"
"2016-11-30T21:03:30.058Z","22.00","33.00"
